^C:\USERS\RHICK\SOURCE\REPOS\TEICHOU\MYSEQ\SERVER\STDAFX.CPP
/c /Zi /JMC /nologo /W3 /WX- /diagnostics:column /Od /Oy- /D WIN32 /D _DEBUG /D _WINDOWS /Gm- /EHsc /MTd /GS /Gy /fp:precise /Zc:wchar_t /Zc:forScope /Zc:inline /Yc"stdafx.h" /Fp"DEBUG\SERVER.PCH" /Fo"DEBUG\\" /Fd"DEBUG\VC142.PDB" /Gd /TP /analyze- /FC C:\USERS\RHICK\SOURCE\REPOS\TEICHOU\MYSEQ\SERVER\STDAFX.CPP
^C:\USERS\RHICK\SOURCE\REPOS\TEICHOU\MYSEQ\SERVER\DEBUGGER.CPP
/c /Zi /JMC /nologo /W3 /WX- /diagnostics:column /Od /Oy- /D WIN32 /D _DEBUG /D _WINDOWS /Gm- /EHsc /MTd /GS /Gy /fp:precise /Zc:wchar_t /Zc:forScope /Zc:inline /Yu"stdafx.h" /Fp"DEBUG\SERVER.PCH" /Fo"DEBUG\\" /Fd"DEBUG\VC142.PDB" /Gd /TP /analyze- /FC C:\USERS\RHICK\SOURCE\REPOS\TEICHOU\MYSEQ\SERVER\DEBUGGER.CPP
^C:\USERS\RHICK\SOURCE\REPOS\TEICHOU\MYSEQ\SERVER\EQGAMESCANNER.CPP
/c /Zi /JMC /nologo /W3 /WX- /diagnostics:column /Od /Oy- /D WIN32 /D _DEBUG /D _WINDOWS /Gm- /EHsc /MTd /GS /Gy /fp:precise /Zc:wchar_t /Zc:forScope /Zc:inline /Yu"stdafx.h" /Fp"DEBUG\SERVER.PCH" /Fo"DEBUG\\" /Fd"DEBUG\VC142.PDB" /Gd /TP /analyze- /FC C:\USERS\RHICK\SOURCE\REPOS\TEICHOU\MYSEQ\SERVER\EQGAMESCANNER.CPP
^C:\USERS\RHICK\SOURCE\REPOS\TEICHOU\MYSEQ\SERVER\INIREADER.CPP
/c /Zi /JMC /nologo /W3 /WX- /diagnostics:column /Od /Oy- /D WIN32 /D _DEBUG /D _WINDOWS /Gm- /EHsc /MTd /GS /Gy /fp:precise /Zc:wchar_t /Zc:forScope /Zc:inline /Yu"stdafx.h" /Fp"DEBUG\SERVER.PCH" /Fo"DEBUG\\" /Fd"DEBUG\VC142.PDB" /Gd /TP /analyze- /FC C:\USERS\RHICK\SOURCE\REPOS\TEICHOU\MYSEQ\SERVER\INIREADER.CPP
^C:\USERS\RHICK\SOURCE\REPOS\TEICHOU\MYSEQ\SERVER\ITEM.CPP
/c /Zi /JMC /nologo /W3 /WX- /diagnostics:column /Od /Oy- /D WIN32 /D _DEBUG /D _WINDOWS /Gm- /EHsc /MTd /GS /Gy /fp:precise /Zc:wchar_t /Zc:forScope /Zc:inline /Yu"stdafx.h" /Fp"DEBUG\SERVER.PCH" /Fo"DEBUG\\" /Fd"DEBUG\VC142.PDB" /Gd /TP /analyze- /FC C:\USERS\RHICK\SOURCE\REPOS\TEICHOU\MYSEQ\SERVER\ITEM.CPP
^C:\USERS\RHICK\SOURCE\REPOS\TEICHOU\MYSEQ\SERVER\MEMREADER.CPP
/c /Zi /JMC /nologo /W3 /WX- /diagnostics:column /Od /Oy- /D WIN32 /D _DEBUG /D _WINDOWS /Gm- /EHsc /MTd /GS /Gy /fp:precise /Zc:wchar_t /Zc:forScope /Zc:inline /Yu"stdafx.h" /Fp"DEBUG\SERVER.PCH" /Fo"DEBUG\\" /Fd"DEBUG\VC142.PDB" /Gd /TP /analyze- /FC C:\USERS\RHICK\SOURCE\REPOS\TEICHOU\MYSEQ\SERVER\MEMREADER.CPP
^C:\USERS\RHICK\SOURCE\REPOS\TEICHOU\MYSEQ\SERVER\MYSEQ.SERVER.CPP
/c /Zi /JMC /nologo /W3 /WX- /diagnostics:column /Od /Oy- /D WIN32 /D _DEBUG /D _WINDOWS /Gm- /EHsc /MTd /GS /Gy /fp:precise /Zc:wchar_t /Zc:forScope /Zc:inline /Yu"stdafx.h" /Fp"DEBUG\SERVER.PCH" /Fo"DEBUG\\" /Fd"DEBUG\VC142.PDB" /Gd /TP /analyze- /FC C:\USERS\RHICK\SOURCE\REPOS\TEICHOU\MYSEQ\SERVER\MYSEQ.SERVER.CPP
^C:\USERS\RHICK\SOURCE\REPOS\TEICHOU\MYSEQ\SERVER\NETWORKSERVER.CPP
/c /Zi /JMC /nologo /W3 /WX- /diagnostics:column /Od /Oy- /D WIN32 /D _DEBUG /D _WINDOWS /Gm- /EHsc /MTd /GS /Gy /fp:precise /Zc:wchar_t /Zc:forScope /Zc:inline /Yu"stdafx.h" /Fp"DEBUG\SERVER.PCH" /Fo"DEBUG\\" /Fd"DEBUG\VC142.PDB" /Gd /TP /analyze- /FC C:\USERS\RHICK\SOURCE\REPOS\TEICHOU\MYSEQ\SERVER\NETWORKSERVER.CPP
^C:\USERS\RHICK\SOURCE\REPOS\TEICHOU\MYSEQ\SERVER\SPAWN.CPP
/c /Zi /JMC /nologo /W3 /WX- /diagnostics:column /Od /Oy- /D WIN32 /D _DEBUG /D _WINDOWS /Gm- /EHsc /MTd /GS /Gy /fp:precise /Zc:wchar_t /Zc:forScope /Zc:inline /Yu"stdafx.h" /Fp"DEBUG\SERVER.PCH" /Fo"DEBUG\\" /Fd"DEBUG\VC142.PDB" /Gd /TP /analyze- /FC C:\USERS\RHICK\SOURCE\REPOS\TEICHOU\MYSEQ\SERVER\SPAWN.CPP
^C:\USERS\RHICK\SOURCE\REPOS\TEICHOU\MYSEQ\SERVER\WORLD.CPP
/c /Zi /JMC /nologo /W3 /WX- /diagnostics:column /Od /Oy- /D WIN32 /D _DEBUG /D _WINDOWS /Gm- /EHsc /MTd /GS /Gy /fp:precise /Zc:wchar_t /Zc:forScope /Zc:inline /Yu"stdafx.h" /Fp"DEBUG\SERVER.PCH" /Fo"DEBUG\\" /Fd"DEBUG\VC142.PDB" /Gd /TP /analyze- /FC C:\USERS\RHICK\SOURCE\REPOS\TEICHOU\MYSEQ\SERVER\WORLD.CPP
