^C:\USERS\RHICK\SOURCE\REPOS\TEICHOU\MYSEQ\SERVER\STDAFX.CPP
C:\USERS\RHICK\SOURCE\REPOS\TEICHOU\MYSEQ\SERVER\DEBUG\SERVER.PCH
C:\USERS\RHICK\SOURCE\REPOS\TEICHOU\MYSEQ\SERVER\DEBUG\VC142.PDB
C:\USERS\RHICK\SOURCE\REPOS\TEICHOU\MYSEQ\SERVER\DEBUG\STDAFX.OBJ
^C:\USERS\RHICK\SOURCE\REPOS\TEICHOU\MYSEQ\SERVER\DEBUGGER.CPP|C:\USERS\RHICK\SOURCE\REPOS\TEICHOU\MYSEQ\SERVER\EQGAMESCANNER.CPP|C:\USERS\RHICK\SOURCE\REPOS\TEICHOU\MYSEQ\SERVER\INIREADER.CPP|C:\USERS\RHICK\SOURCE\REPOS\TEICHOU\MYSEQ\SERVER\ITEM.CPP|C:\USERS\RHICK\SOURCE\REPOS\TEICHOU\MYSEQ\SERVER\MEMREADER.CPP|C:\USERS\RHICK\SOURCE\REPOS\TEICHOU\MYSEQ\SERVER\MYSEQ.SERVER.CPP|C:\USERS\RHICK\SOURCE\REPOS\TEICHOU\MYSEQ\SERVER\NETWORKSERVER.CPP|C:\USERS\RHICK\SOURCE\REPOS\TEICHOU\MYSEQ\SERVER\SPAWN.CPP|C:\USERS\RHICK\SOURCE\REPOS\TEICHOU\MYSEQ\SERVER\WORLD.CPP
C:\USERS\RHICK\SOURCE\REPOS\TEICHOU\MYSEQ\SERVER\DEBUG\VC142.PDB
C:\USERS\RHICK\SOURCE\REPOS\TEICHOU\MYSEQ\SERVER\DEBUG\WORLD.OBJ
C:\USERS\RHICK\SOURCE\REPOS\TEICHOU\MYSEQ\SERVER\DEBUG\SPAWN.OBJ
C:\USERS\RHICK\SOURCE\REPOS\TEICHOU\MYSEQ\SERVER\DEBUG\NETWORKSERVER.OBJ
C:\USERS\RHICK\SOURCE\REPOS\TEICHOU\MYSEQ\SERVER\DEBUG\MYSEQ.SERVER.OBJ
C:\USERS\RHICK\SOURCE\REPOS\TEICHOU\MYSEQ\SERVER\DEBUG\MEMREADER.OBJ
C:\USERS\RHICK\SOURCE\REPOS\TEICHOU\MYSEQ\SERVER\DEBUG\ITEM.OBJ
C:\USERS\RHICK\SOURCE\REPOS\TEICHOU\MYSEQ\SERVER\DEBUG\INIREADER.OBJ
C:\USERS\RHICK\SOURCE\REPOS\TEICHOU\MYSEQ\SERVER\DEBUG\EQGAMESCANNER.OBJ
C:\USERS\RHICK\SOURCE\REPOS\TEICHOU\MYSEQ\SERVER\DEBUG\DEBUGGER.OBJ
^C:\USERS\RHICK\SOURCE\REPOS\TEICHOU\MYSEQ\SERVER\DEBUGGER.CPP
C:\USERS\RHICK\SOURCE\REPOS\TEICHOU\MYSEQ\SERVER\DEBUG\VC142.PDB
^C:\USERS\RHICK\SOURCE\REPOS\TEICHOU\MYSEQ\SERVER\EQGAMESCANNER.CPP
C:\USERS\RHICK\SOURCE\REPOS\TEICHOU\MYSEQ\SERVER\DEBUG\VC142.PDB
^C:\USERS\RHICK\SOURCE\REPOS\TEICHOU\MYSEQ\SERVER\INIREADER.CPP
C:\USERS\RHICK\SOURCE\REPOS\TEICHOU\MYSEQ\SERVER\DEBUG\VC142.PDB
^C:\USERS\RHICK\SOURCE\REPOS\TEICHOU\MYSEQ\SERVER\ITEM.CPP
C:\USERS\RHICK\SOURCE\REPOS\TEICHOU\MYSEQ\SERVER\DEBUG\VC142.PDB
^C:\USERS\RHICK\SOURCE\REPOS\TEICHOU\MYSEQ\SERVER\MEMREADER.CPP
C:\USERS\RHICK\SOURCE\REPOS\TEICHOU\MYSEQ\SERVER\DEBUG\VC142.PDB
^C:\USERS\RHICK\SOURCE\REPOS\TEICHOU\MYSEQ\SERVER\MYSEQ.SERVER.CPP
C:\USERS\RHICK\SOURCE\REPOS\TEICHOU\MYSEQ\SERVER\DEBUG\VC142.PDB
^C:\USERS\RHICK\SOURCE\REPOS\TEICHOU\MYSEQ\SERVER\NETWORKSERVER.CPP
C:\USERS\RHICK\SOURCE\REPOS\TEICHOU\MYSEQ\SERVER\DEBUG\VC142.PDB
^C:\USERS\RHICK\SOURCE\REPOS\TEICHOU\MYSEQ\SERVER\SPAWN.CPP
C:\USERS\RHICK\SOURCE\REPOS\TEICHOU\MYSEQ\SERVER\DEBUG\VC142.PDB
^C:\USERS\RHICK\SOURCE\REPOS\TEICHOU\MYSEQ\SERVER\WORLD.CPP
C:\USERS\RHICK\SOURCE\REPOS\TEICHOU\MYSEQ\SERVER\DEBUG\VC142.PDB
